…
recent_posts %>%
  group_by(subreddit) %>%
  count(sort = TRUE)
#> # A tibble: 56 × 2
#> # Groups:   subreddit [56]
#>    subreddit         n
#>    <chr>         <int>
#>  1 90sHipHop       100
#>  2 AARP_Politics   100
#>  3 antimeme        100
#>  4 ARK             100
#>  5 AskReddit       100
#>  6 ASX_Bets        100
#>  7 aww             100
#>  8 Bioshock        100
#>  9 BNBTrader       100
#> 10 buffalobills    100
#> # … with 46 more rows
```
…
